<?xml version="1.0" standalone="no"?>
<!DOCTYPE svg PUBLIC "-//W3C//DTD SVG 20010904//EN"
 "http://www.w3.org/TR/2001/REC-SVG-20010904/DTD/svg10.dtd">
<svg version="1.0" xmlns="http://www.w3.org/2000/svg"
 width="189.000000pt" height="189.000000pt" viewBox="0 0 189.000000 189.000000"
 preserveAspectRatio="xMidYMid meet">
<metadata>
Created by potrace 1.14, written by Peter Selinger 2001-2017
</metadata>
<g transform="translate(0.000000,189.000000) scale(0.100000,-0.100000)"
fill="#000000" stroke="none">
<path d="M869 1886 c-2 -2 -22 -6 -44 -9 -212 -29 -441 -182 -550 -368 -48
-82 -63 -119 -85 -213 -18 -74 -19 -125 -20 -688 l0 -608 262 0 c251 0 266 2
319 23 70 29 118 73 155 140 22 42 29 68 32 134 3 52 9 83 16 84 166 12 332
72 451 162 133 100 218 220 275 387 41 120 34 345 -14 454 -7 17 -22 49 -31
71 -30 67 -75 126 -162 212 -136 134 -313 209 -514 219 -47 3 -87 3 -90 0z"/>
</g>
</svg>
