{
    "name": "Peyresourde",
    "country": "France",
    "is_offgrid": true,
    "latitude": 43.8001088,
    "longitude": 3.3059847,
    "location_area_1": "Languedoc",
    "location_area_2": "Hérault",
    "location_area_3": "Haut-Cantons",
    "location_area_4": "Pégairolles",
    "operator_company": "Coopérative Énergitique des Hauts Cantons",
    "operator_phone_e": "Cdc4E0325e7AbfBaF986",
    "operator_phone_p": "FE8c0A96aeBDd274fC51",
    "power_rating_kw": 1000,
    "primary_input_installed_kw": 500,
    "primary_input_source": "solar panel",
    "secondary_input_installed_kw": 500000,
    "secondary_input_source": "micro fusion generator",
    "storage_capacity_kwh": 1000,
    "gnome_count": 13,
    "ambient_smell": "thym"
}