[
  {
    "Record No": "2828",
    "Transaction ID": "MP240206.1904.N12345",
    "Reference No.": "C304820012",
    "Transaction Date & Time": "06-FEB-2024  19:04:41",
    "Payer MFS Provider": "Airtel",
    "Payer Payment Instrument": "WALLET",
    "Payer Wallet Type/Linked Bank": "Normal",
    "Sender Grade": "Gold Subscriber",
    "Payer Category": "Subscriber",
    "Payee MFS Provider": "Airtel",
    "Payee Payment Instrument": "WALLET",
    "Payee Wallet Type/Linked Bank": "Normal",
    "Receiver Mobile Number": "889073368",
    "Payee Bank Account No/Mobile No": "889073368",
    "Receiver Category": "Head Merchant",
    "Receiver Grade": "2PercentMerchant",
    "Payee User Name": "EMERGING COOKING SOLUTIONS",
    "Payee Nick Name": "XXXXMOTO",
    "Service Type": "Merchant Payment",
    "Transaction Status": "Transaction Success",
    "Transaction Amount": "130",
    "Payer Previous Balance": "NA",
    "Payer Post Balance": "NA",
    "Payee Pre Balance": "19083.25",
    "Payee Post Balance": "19213.25",
    "Total Service Charge": "1",
    "Payer Bank Account No/Mobile No_e": null,
    "Payer Bank Account No/Mobile No_p": "ba7bfbd110b9f588a33576a6218fd8d5e29fe1aa1320e59c8c525bf22417a71f",
    "Payer User Name_e": null,
    "Payer User Name_p": "e56dd02199c6eca5809cfe6fc1e2606a1eb185333ab00d43bbbaf0d5c10be2be",
    "Payer Nick Name_e": null,
    "Payer Nick Name_p": null,
    "Payer Mobile Number_e": null,
    "Payer Mobile Number_p": "ba7bfbd110b9f588a33576a6218fd8d5e29fe1aa1320e59c8c525bf22417a71f"
  },
  {
    "Record No": "2829",
    "Transaction ID": "MP240206.1942.K12345",
    "Reference No.": "310035224",
    "Transaction Date & Time": "06-FEB-2024  19:42:15",
    "Payer MFS Provider": "Airtel",
    "Payer Payment Instrument": "WALLET",
    "Payer Wallet Type/Linked Bank": "Normal",
    "Sender Grade": "Gold Subscriber",
    "Payer Category": "Subscriber",
    "Payee MFS Provider": "Airtel",
    "Payee Payment Instrument": "WALLET",
    "Payee Wallet Type/Linked Bank": "Normal",
    "Receiver Mobile Number": "889073368",
    "Payee Bank Account No/Mobile No": "889073368",
    "Receiver Category": "Head Merchant",
    "Receiver Grade": "2PercentMerchant",
    "Payee User Name": "EMERGING COOKING SOLUTIONS",
    "Payee Nick Name": "XXXXMOTO",
    "Service Type": "Merchant Payment",
    "Transaction Status": "Transaction Success",
    "Transaction Amount": "100",
    "Payer Previous Balance": "NA",
    "Payer Post Balance": "NA",
    "Payee Pre Balance": "19213.25",
    "Payee Post Balance": "19313.25",
    "Total Service Charge": "1",
    "Payer Bank Account No/Mobile No_e": null,
    "Payer Bank Account No/Mobile No_p": "116185b60e6dc0099b306a74ef18fdf4fda8c641eea03266e81fd2e5148f5fc1",
    "Payer User Name_e": null,
    "Payer User Name_p": "3edef253f4e39a3a132da09fa3c26716fb81e3df4d1724782af2ab8ca06a9e16",
    "Payer Nick Name_e": null,
    "Payer Nick Name_p": null,
    "Payer Mobile Number_e": null,
    "Payer Mobile Number_p": "116185b60e6dc0099b306a74ef18fdf4fda8c641eea03266e81fd2e5148f5fc1"
  }
]
