{
    "customers": [
        {
            "code": "1729",
            "id": "6f4796f5-cd3d-43d2-8b13-6138572a60af",
            "balances": {
                "credit": {
                    "value": "25.68",
                    "currency": "ZMW"
                },
                "plan": {
                    "value": "0.00",
                    "currency": "ZMW"
                },
                "technical_debt": {
                    "value": "0.00",
                    "currency": "ZMW"
                }
            },
            "meters": [
                {
                    "coordinates": {"lon_b":28.3, "lat_b":-15.4},
                    "operating_mode": "auto",
                    "tariff_id": "188cf040-1401-4c40-bb1f-63c81581511c",
                    "pole_id": null,
                    "meter_phase": "ABC",
                    "tariff": {
                        "name": "Residential",
                        "electricity_rate_type": "flat_rate",
                        "block_rate": null,
                        "rate_amount": {
                            "value": "1.2100",
                            "numerator": "ZMW",
                            "denominator": "kWh"
                        },
                        "time_of_use": null,
                        "load_limit_type": "flat",
                        "load_limit": {
                            "value": 25000,
                            "unit": "Watts"
                        },
                        "plan_type": null,
                        "low_balance_threshold": {
                            "amount": "0.0000",
                            "currency": "ZMW"
                        },
                        "inrush_current_protection_disabled": false,
                        "block_rate_cycle_reset_energy": null,
                        "last_block_rate_cycle_reset_at": null
                    },
                    "id": "1aab2c8b-f8f6-4f1c-869f-87820a500742",
                    "latest_reading": {
                        "apparent_power_avg": 16.0,
                        "current_avg": 0.09600000083446503,
                        "current_max": 0.11400000751018524,
                        "current_min": 0.09400000423192978,
                        "energy": 76.303,
                        "frequency": 49.04999923706055,
                        "heartbeat_end": "2024-01-31T13:15:00",
                        "heartbeat_start": "2024-01-31T13:00:00",
                        "power_factor_avg": 0.6340000033378601,
                        "state": "on",
                        "true_power_avg": 10.0,
                        "true_power_inst": 0.0,
                        "uptime_secs": 10426,
                        "user_power_limit": 14640.0,
                        "voltage_avg": 188.4099884033203,
                        "voltage_max": 193.42999267578126,
                        "voltage_min": 0.09600000083446503
                    },
                    "serial": "SMRSDRF-02-00037425",
                    "address_e": null,
                    "address_p": "0194f6a8929a440332fe51ade6ca561935b1a965a31187b193a8990aadcca4ef",
                    "coordinates_e": null,
                    "coordinates_p": null
                }
            ],
            "last_plan_renewal": null,
            "next_plan_renewal": null,
            "site_id": "ac071a94-de1d-43bb-b7ff-fa0a24f02709",
            "name_e": null,
            "name_p": "942bb8b13e11a401daadc9e50f07a2892ea086db57bb3e31ad26319c4b9636b3",
            "phone_number_e": null,
            "phone_number_p": null
        },
        {
            "code": "1865",
            "id": "1ba783fb-bc8e-4b26-8697-574ab1fcf805",
            "balances": {
                "credit": {
                    "value": "28.59",
                    "currency": "ZMW"
                },
                "plan": {
                    "value": "0.00",
                    "currency": "ZMW"
                },
                "technical_debt": {
                    "value": "0.00",
                    "currency": "ZMW"
                }
            },
            "meters": [
                {
                    "coordinates": null,
                    "operating_mode": "auto",
                    "tariff_id": "188cf040-1401-4c40-bb1f-63c81581511c",
                    "pole_id": null,
                    "meter_phase": "1",
                    "tariff": {
                        "name": "Residential",
                        "electricity_rate_type": "flat_rate",
                        "block_rate": null,
                        "rate_amount": {
                            "value": "1.2100",
                            "numerator": "ZMW",
                            "denominator": "kWh"
                        },
                        "time_of_use": null,
                        "load_limit_type": "flat",
                        "load_limit": {
                            "value": 25000,
                            "unit": "Watts"
                        },
                        "plan_type": null,
                        "low_balance_threshold": {
                            "amount": "0.0000",
                            "currency": "ZMW"
                        },
                        "inrush_current_protection_disabled": false,
                        "block_rate_cycle_reset_energy": null,
                        "last_block_rate_cycle_reset_at": null
                    },
                    "id": "67f541a9-9aa0-480d-8b18-45813c1435e8",
                    "latest_reading": {
                        "apparent_power_avg": 42.0,
                        "current_avg": 0.18000000715255738,
                        "current_max": 0.19200000166893006,
                        "current_min": 0.17600001394748689,
                        "energy": 75.546,
                        "frequency": 48.97999954223633,
                        "heartbeat_end": "2024-01-31T13:30:00",
                        "heartbeat_start": "2024-01-31T13:15:00",
                        "power_factor_avg": 0.7380000352859497,
                        "state": "on",
                        "true_power_avg": 30.0,
                        "true_power_inst": 0.0,
                        "uptime_secs": 11325,
                        "user_power_limit": 14640.0,
                        "voltage_avg": 242.55999755859376,
                        "voltage_max": 245.4399871826172,
                        "voltage_min": 0.18000000715255738
                    },
                    "serial": "SMRSD-04-0004E890",
                    "address_e": null,
                    "address_p": "e38bf27e0eb7dd9169e5435519f4ac4d9ea609861b51eca92412b5eeacf212c5",
                    "coordinates_e": null,
                    "coordinates_p": null
                }
            ],
            "last_plan_renewal": null,
            "next_plan_renewal": null,
            "site_id": "ac071a94-de1d-43bb-b7ff-fa0a24f02709",
            "name_e": null,
            "name_p": "179cb0646bb04df5508e8d9180e7615cc7279f59b4b53e6ff1bc75786200c465",
            "phone_number_e": null,
            "phone_number_p": null
        },
        {
            "code": "1864",
            "id": "cd963319-5c1c-4c02-b477-2bdf2d0170af",
            "balances": {
                "credit": {
                    "value": "55.20",
                    "currency": "ZMW"
                },
                "plan": {
                    "value": "0.00",
                    "currency": "ZMW"
                },
                "technical_debt": {
                    "value": "0.00",
                    "currency": "ZMW"
                }
            },
            "meters": [
                {
                    "coordinates": null,
                    "operating_mode": "auto",
                    "tariff_id": "188cf040-1401-4c40-bb1f-63c81581511c",
                    "pole_id": null,
                    "meter_phase": "A",
                    "tariff": {
                        "name": "Residential",
                        "electricity_rate_type": "flat_rate",
                        "block_rate": null,
                        "rate_amount": {
                            "value": "1.2100",
                            "numerator": "ZMW",
                            "denominator": "kWh"
                        },
                        "time_of_use": null,
                        "load_limit_type": "flat",
                        "load_limit": {
                            "value": 25000,
                            "unit": "Watts"
                        },
                        "plan_type": null,
                        "low_balance_threshold": {
                            "amount": "0.0000",
                            "currency": "ZMW"
                        },
                        "inrush_current_protection_disabled": false,
                        "block_rate_cycle_reset_energy": null,
                        "last_block_rate_cycle_reset_at": null
                    },
                    "id": "8a42f25e-1ef8-42a9-8692-35a77f7ccf5d",
                    "latest_reading": {
                        "apparent_power_avg": 2.0,
                        "current_avg": 0.0,
                        "current_max": 0.0,
                        "current_min": 0.0,
                        "energy": 3.9650000000000005,
                        "frequency": 48.97999954223633,
                        "heartbeat_end": "2024-01-31T13:30:00",
                        "heartbeat_start": "2024-01-31T13:15:00",
                        "power_factor_avg": 0.0010000000474974514,
                        "state": "on",
                        "true_power_avg": 0.0,
                        "true_power_inst": 0.0,
                        "uptime_secs": 11094,
                        "user_power_limit": 14640.0,
                        "voltage_avg": 229.97000122070313,
                        "voltage_max": 233.72000122070313,
                        "voltage_min": 0.0
                    },
                    "serial": "SMRSD-04-0004F75D",
                    "address_e": null,
                    "address_p": "e38bf27e0eb7dd9169e5435519f4ac4d9ea609861b51eca92412b5eeacf212c5",
                    "coordinates_e": null,
                    "coordinates_p": null
                }
            ],
            "last_plan_renewal": null,
            "next_plan_renewal": null,
            "site_id": "ac071a94-de1d-43bb-b7ff-fa0a24f02709",
            "name_e": null,
            "name_p": "7aff1bdf79487b64a1cd97b71c8d87f0e2b06bf7d9bd052adb552e5ce5745aaa",
            "phone_number_e": null,
            "phone_number_p": null
        },
        {
            "code": "1901",
            "id": "38e453e2-0339-4cfa-bcdc-9c642aaad15d",
            "balances": {
                "credit": {
                    "value": "107.34",
                    "currency": "ZMW"
                },
                "plan": {
                    "value": "0.00",
                    "currency": "ZMW"
                },
                "technical_debt": {
                    "value": "0.00",
                    "currency": "ZMW"
                }
            },
            "meters": [
                {
                    "coordinates": null,
                    "operating_mode": "auto",
                    "tariff_id": "188cf040-1401-4c40-bb1f-63c81581511c",
                    "pole_id": null,
                    "meter_phase": "b",
                    "tariff": {
                        "name": "Residential",
                        "electricity_rate_type": "flat_rate",
                        "block_rate": null,
                        "rate_amount": {
                            "value": "1.2100",
                            "numerator": "ZMW",
                            "denominator": "kWh"
                        },
                        "time_of_use": null,
                        "load_limit_type": "flat",
                        "load_limit": {
                            "value": 25000,
                            "unit": "Watts"
                        },
                        "plan_type": null,
                        "low_balance_threshold": {
                            "amount": "0.0000",
                            "currency": "ZMW"
                        },
                        "inrush_current_protection_disabled": false,
                        "block_rate_cycle_reset_energy": null,
                        "last_block_rate_cycle_reset_at": null
                    },
                    "id": "ee8f7ba7-a7a9-4bd1-aa61-e158f619eae7",
                    "latest_reading": {
                        "apparent_power_avg": 12.0,
                        "current_avg": 0.06200000271201134,
                        "current_max": 0.14000000059604646,
                        "current_min": 0.026000000536441804,
                        "energy": 18.725,
                        "frequency": 48.96999740600586,
                        "heartbeat_end": "2024-01-31T13:30:00",
                        "heartbeat_start": "2024-01-31T13:15:00",
                        "power_factor_avg": 0.6660000085830689,
                        "state": "on",
                        "true_power_avg": 10.0,
                        "true_power_inst": 0.0,
                        "uptime_secs": 11092,
                        "user_power_limit": 14640.0,
                        "voltage_avg": 230.47999572753907,
                        "voltage_max": 234.13999938964845,
                        "voltage_min": 0.06200000271201134
                    },
                    "serial": "SMRSD-04-0004EF4C",
                    "address_e": null,
                    "address_p": null,
                    "coordinates_e": null,
                    "coordinates_p": null
                }
            ],
            "last_plan_renewal": null,
            "next_plan_renewal": null,
            "site_id": "ac071a94-de1d-43bb-b7ff-fa0a24f02709",
            "name_e": null,
            "name_p": "96c1735bdb3cf31ec29e15f02ed09a66081974d4233dfa0c92784410b0faf1a9",
            "phone_number_e": null,
            "phone_number_p": null
        },
        {
            "balances": {
                "credit": {
                    "currency": "XOF",
                    "value": "0"
                },
                "plan": {
                    "currency": "XOF",
                    "value": "0"
                },
                "technical_debt": {
                    "currency": "XOF",
                    "value": "0"
                }
            },
            "code": null,
            "energy_limited": null,
            "id": "3a6ccd38-d99d-47f4-89dd-2c5d5b694eff",
            "last_energy_limit_reset_at": null,
            "last_energy_limit_reset_energy": null,
            "last_plan_renewal": null,
            "meters": [
                {
                    "address_e": null,
                    "address_p": null,
                    "coordinates": null,
                    "id": "843a0f9f-fa6b-410d-999d-dbc49d75a9ff",
                    "latest_reading": null,
                    "meter_phase": null,
                    "operating_mode": "on",
                    "pole_id": null,
                    "serial": "SMRSD-04-0004FA9F",
                    "tariff": {
                        "block_rate": null,
                        "block_rate_cycle_reset_energy": null,
                        "daily_energy_limit": null,
                        "daily_energy_limit_unit": "kWh",
                        "electricity_rate_type": "flat_rate",
                        "inrush_current_protection_disabled": false,
                        "last_block_rate_cycle_reset_at": null,
                        "load_limit": {
                            "unit": "Watts",
                            "value": 2000
                        },
                        "load_limit_type": "flat",
                        "low_balance_threshold": {
                            "amount": "159.0000",
                            "currency": "XOF"
                        },
                        "name": "Residentiel B",
                        "plan_type": null,
                        "rate_amount": {
                            "denominator": "kWh",
                            "numerator": "XOF",
                            "value": "318.1000"
                        },
                        "time_of_use": null
                    },
                    "tariff_id": "162b4f23-2c2d-4a69-a8a1-777a03bcfeff"
                }
            ],
            "name_e": null,
            "name_p": "3262663de3527b5c8715df2f22ba36dc545ec2e488faa8904a5d4160e4b7e55f",
            "next_plan_renewal": null,
            "phone_number_e": null,
            "phone_number_p": null,
            "service_area_id": "43a81ea8-f5fd-4df3-ae6b-0b7f54a58fef",
            "site_id": "8f80b0a8-0502-4e26-9043-7152979360af"
        }
    ]
}